{
  "cordova-plugin-whitelist": {
    "source": {
      "type": "registry",
      "id": "cordova-plugin-whitelist@^1.3.3"
    },
    "is_top_level": true,
    "variables": {}
  },
  "cordova-plugin-device": {
    "source": {
      "type": "registry",
      "id": "cordova-plugin-device@^2.0.1"
    },
    "is_top_level": true,
    "variables": {}
  },
  "cordova-plugin-splashscreen": {
    "source": {
      "type": "registry",
      "id": "cordova-plugin-splashscreen@^5.0.2"
    },
    "is_top_level": true,
    "variables": {}
  },
  "cordova-plugin-ionic-webview": {
    "source": {
      "type": "registry",
      "id": "cordova-plugin-ionic-webview@^1.1.16"
    },
    "is_top_level": true,
    "variables": {}
  },
  "cordova-plugin-ionic-keyboard": {
    "source": {
      "type": "registry",
      "id": "cordova-plugin-ionic-keyboard@^2.0.5"
    },
    "is_top_level": true,
    "variables": {}
  },
  "cordova-sqlite-storage": {
    "source": {
      "type": "registry",
      "id": "cordova-sqlite-storage@~2.3.1"
    },
    "is_top_level": true,
    "variables": {}
  },
  "cordova-plugin-file-transfer": {
    "source": {
      "type": "registry",
      "id": "cordova-plugin-file-transfer@~1.7.1"
    },
    "is_top_level": true,
    "variables": {}
  },
  "cordova-plugin-stripe": {
    "source": {
      "type": "registry",
      "id": "cordova-plugin-stripe@^1.5.3"
    },
    "is_top_level": true,
    "variables": {}
  },
  "cordova-plugin-file-opener2": {
    "source": {
      "type": "registry",
      "id": "cordova-plugin-file-opener2@^2.0.19"
    },
    "is_top_level": true,
    "variables": {}
  },
  "cordova-plugin-appavailability": {
    "source": {
      "type": "registry",
      "id": "cordova-plugin-appavailability@^0.4.2"
    },
    "is_top_level": true,
    "variables": {}
  },
  "cordova-plugin-inappbrowser": {
    "source": {
      "type": "registry",
      "id": "cordova-plugin-inappbrowser@^3.0.0"
    },
    "is_top_level": true,
    "variables": {}
  },
  "cordova-plugin-local-notification": {
    "source": {
      "type": "registry",
      "id": "cordova-plugin-local-notification@~0.9.0-beta.2"
    },
    "is_top_level": true,
    "variables": {}
  },
  "cordova-plugin-badge": {
    "source": {
      "type": "registry",
      "id": "cordova-plugin-badge"
    },
    "is_top_level": false,
    "variables": {}
  },
  "cordova-plugin-geolocation": {
    "source": {
      "type": "registry",
      "id": "cordova-plugin-geolocation@^4.0.1"
    },
    "is_top_level": true,
    "variables": {
      "GEOLOCATION_USAGE_DESCRIPTION": "To locate you"
    }
  },
  "cordova-plugin-media-capture": {
    "source": {
      "type": "registry",
      "id": "cordova-plugin-media-capture@^3.0.2"
    },
    "is_top_level": true,
    "variables": {}
  },
  "cordova-plugin-photo-library": {
    "source": {
      "type": "registry",
      "id": "cordova-plugin-photo-library@^2.1.1"
    },
    "is_top_level": true,
    "variables": {
      "PHOTO_LIBRARY_USAGE_DESCRIPTION": "To choose photos"
    }
  },
  "cordova.plugins.diagnostic": {
    "source": {
      "type": "registry",
      "id": "cordova.plugins.diagnostic@^4.0.8"
    },
    "is_top_level": true,
    "variables": {}
  },
  "cordova-plugin-telerik-imagepicker": {
    "source": {
      "type": "registry",
      "id": "cordova-plugin-telerik-imagepicker@^2.2.2"
    },
    "is_top_level": true,
    "variables": {
      "PHOTO_LIBRARY_USAGE_DESCRIPTION": "your usage message"
    }
  },
  "cordova-plugin-android-support-v4": {
    "source": {
      "type": "registry",
      "id": "cordova-plugin-android-support-v4"
    },
    "is_top_level": true,
    "variables": {}
  },
  "cordova-android-support-gradle-release": {
    "source": {
      "type": "registry",
      "id": "cordova-android-support-gradle-release"
    },
    "is_top_level": true,
    "variables": {
      "ANDROID_SUPPORT_VERSION": "27.+"
    }
  },
  "cordova-plugin-android-permissions": {
    "source": {
      "type": "registry",
      "id": "cordova-plugin-android-permissions"
    },
    "is_top_level": true,
    "variables": {}
  },
  "cordova-plugin-x-socialsharing": {
    "source": {
      "type": "registry",
      "id": "cordova-plugin-x-socialsharing"
    },
    "is_top_level": true,
    "variables": {}
  },
  "es6-promise-plugin": {
    "source": {
      "type": "registry",
      "id": "es6-promise-plugin"
    },
    "is_top_level": false,
    "variables": {}
  },
  "cordova-plugin-camera": {
    "source": {
      "type": "registry",
      "id": "cordova-plugin-camera@4.0.3"
    },
    "is_top_level": true,
    "variables": {}
  },
  "cordova-plugin-facebook4": {
    "source": {
      "type": "registry",
      "id": "cordova-plugin-facebook4"
    },
    "is_top_level": true,
    "variables": {
      "APP_ID": "163731957640408",
      "APP_NAME": "MyPolis",
      "ANDROID_SDK_VERSION": "4.+"
    }
  },
  "cordova-plugin-add-swift-support": {
    "source": {
      "type": "registry",
      "id": "cordova-plugin-add-swift-support"
    },
    "is_top_level": true,
    "variables": {}
  },
  "cordova-plugin-file": {
    "source": {
      "type": "registry",
      "id": "cordova-plugin-file@5.0.0"
    },
    "is_top_level": true,
    "variables": {}
  },
  "phonegap-plugin-push": {
    "source": {
      "type": "registry",
      "id": "phonegap-plugin-push@1.8.4"
    },
    "is_top_level": true,
    "variables": {
      "SENDER_ID": "318490138469"
    }
  }
}